[api-updater (non-obsolete-error-filter)] 4/7/2022 1:30:37 AM : Starting C:/Program Files/Unity/Hub/Editor/2020.3.32f1/Editor/Data/Tools/ScriptUpdater/APIUpdater.NonObsoleteApiUpdaterDetector.exe
[api-updater (non-obsolete-error-filter)] 
----------------------------------
jit/startup time      : 1290.2941ms
moved types parse time: 90ms
candidates parse time : 2ms
C# parse time         : 1078ms
candidates check time : 69ms
console write time    : 0ms

